pipe.png
format: RGBA8888
filter: Linear,Linear
repeat: none
bar
  rotate: false
  xy: 0, 151
  size: 450, 7
  orig: 450, 7
  offset: 0, 0
  index: -1
base
  rotate: false
  xy: 0, 0
  size: 450, 150
  orig: 450, 150
  offset: 0, 0
  index: -1
